%YAML 1.1
%TAG !u! tag:unity3d.com,2011:
--- !u!1 &100000
GameObject:
  m_ObjectHideFlags: 0
  m_PrefabParentObject: {fileID: 0}
  m_PrefabInternal: {fileID: 100100000}
  serializedVersion: 5
  m_Component:
  - component: {fileID: 400000}
  - component: {fileID: 11400000}
  m_Layer: 0
  m_Name: Custom_RainbowLaser
  m_TagString: Untagged
  m_Icon: {fileID: 0}
  m_NavMeshLayer: 0
  m_StaticEditorFlags: 0
  m_IsActive: 1
--- !u!4 &400000
Transform:
  m_ObjectHideFlags: 1
  m_PrefabParentObject: {fileID: 0}
  m_PrefabInternal: {fileID: 100100000}
  m_GameObject: {fileID: 100000}
  m_LocalRotation: {x: 0, y: 0, z: 0, w: 1}
  m_LocalPosition: {x: 0, y: 0, z: 0}
  m_LocalScale: {x: 1, y: 1, z: 1}
  m_Children: []
  m_Father: {fileID: 0}
  m_RootOrder: 0
  m_LocalEulerAnglesHint: {x: 0, y: 0, z: 0}
--- !u!114 &11400000
MonoBehaviour:
  m_ObjectHideFlags: 1
  m_PrefabParentObject: {fileID: 0}
  m_PrefabInternal: {fileID: 100100000}
  m_GameObject: {fileID: 100000}
  m_Enabled: 1
  m_EditorHideFlags: 0
  m_Script: {fileID: 11500000, guid: 95bdfe7476280ba478ac44cdcba5b058, type: 3}
  m_Name: 
  m_EditorClassIdentifier: 
  arcs:
  - material: {fileID: 2100000, guid: bc9b4591c08a2ed4fbd35d64e5b2437b, type: 2}
    colorOptions:
      startColor:
        serializedVersion: 2
        key0: {r: 1, g: 0, b: 0, a: 0}
        key1: {r: 0.8627451, g: 1, b: 0, a: 1}
        key2: {r: 0, g: 1, b: 0.09019608, a: 1}
        key3: {r: 0, g: 0.95686275, b: 1, a: 1}
        key4: {r: 0.28235295, g: 0, b: 1, a: 0}
        key5: {r: 1, g: 0, b: 0.972549, a: 0}
        key6: {r: 0, g: 0, b: 0, a: 0}
        key7: {r: 0, g: 0, b: 0, a: 0}
        ctime0: 10017
        ctime1: 18707
        ctime2: 27517
        ctime3: 35483
        ctime4: 48380
        ctime5: 65535
        ctime6: 0
        ctime7: 0
        atime0: 0
        atime1: 8867
        atime2: 65535
        atime3: 65535
        atime4: 0
        atime5: 0
        atime6: 0
        atime7: 0
        m_Mode: 0
        m_NumColorKeys: 6
        m_NumAlphaKeys: 3
      onlyStartColor: 0
      endColor:
        serializedVersion: 2
        key0: {r: 1, g: 0, b: 0.972549, a: 1}
        key1: {r: 0.28235295, g: 0, b: 1, a: 1}
        key2: {r: 0, g: 0.95686275, b: 1, a: 0}
        key3: {r: 0, g: 1, b: 0.09019608, a: 0}
        key4: {r: 0.8627451, g: 1, b: 0, a: 0}
        key5: {r: 1, g: 0, b: 0, a: 0}
        key6: {r: 0, g: 0, b: 0, a: 0}
        key7: {r: 0, g: 0, b: 0, a: 0}
        ctime0: 0
        ctime1: 14649
        ctime2: 26407
        ctime3: 36623
        ctime4: 46067
        ctime5: 58294
        ctime6: 0
        ctime7: 0
        atime0: 0
        atime1: 56283
        atime2: 65535
        atime3: 65535
        atime4: 0
        atime5: 0
        atime6: 0
        atime7: 0
        m_Mode: 0
        m_NumColorKeys: 6
        m_NumAlphaKeys: 3
      coreColor:
        serializedVersion: 2
        key0: {r: 1, g: 1, b: 1, a: 1}
        key1: {r: 1, g: 1, b: 1, a: 1}
        key2: {r: 0, g: 0, b: 0, a: 0}
        key3: {r: 0, g: 0, b: 0, a: 0}
        key4: {r: 0, g: 0, b: 0, a: 0}
        key5: {r: 0, g: 0, b: 0, a: 0}
        key6: {r: 0, g: 0, b: 0, a: 0}
        key7: {r: 0, g: 0, b: 0, a: 0}
        ctime0: 0
        ctime1: 65535
        ctime2: 0
        ctime3: 0
        ctime4: 0
        ctime5: 0
        ctime6: 0
        ctime7: 0
        atime0: 0
        atime1: 65535
        atime2: 0
        atime3: 0
        atime4: 0
        atime5: 0
        atime6: 0
        atime7: 0
        m_Mode: 0
        m_NumColorKeys: 2
        m_NumAlphaKeys: 2
      coreCurve:
        serializedVersion: 2
        m_Curve:
        - serializedVersion: 2
          time: 0
          value: 0
          inSlope: 0.4015828
          outSlope: 0.4015828
          tangentMode: 34
        - serializedVersion: 2
          time: 0.5024805
          value: 0.20178753
          inSlope: 0.00000022164876
          outSlope: 0.00000022164876
          tangentMode: 0
        - serializedVersion: 2
          time: 1
          value: 0
          inSlope: -0.4055872
          outSlope: -0.4055872
          tangentMode: 34
        m_PreInfinity: 2
        m_PostInfinity: 2
        m_RotationOrder: 0
      coreJitter: 0
      fade: 1
      fadePoint: 0.2
      frontFade: 0
      frontFadePoint: 0
    sizeOptions:
      interpolation: 0
      shapeType: 0
      startWidthCurve:
        serializedVersion: 2
        m_Curve:
        - serializedVersion: 2
          time: 0
          value: 0
          inSlope: 0.14708824
          outSlope: 0.14708824
          tangentMode: 34
        - serializedVersion: 2
          time: 0.49852797
          value: 0.0733276
          inSlope: 0.0014345888
          outSlope: 0.0014345888
          tangentMode: 0
        - serializedVersion: 2
          time: 1
          value: 0
          inSlope: -0.14622472
          outSlope: -0.14622472
          tangentMode: 34
        m_PreInfinity: 2
        m_PostInfinity: 2
        m_RotationOrder: 0
      endWidthCurve:
        serializedVersion: 2
        m_Curve: []
        m_PreInfinity: 0
        m_PostInfinity: 0
        m_RotationOrder: 4
      segmentLength: 100
      snapSegmentsToShape: 0
      numberOfSmoothingSegments: 0
      minNumberOfSegments: 1
      cornerVertices: 0
      capVectices: 0
    propagationOptions:
      propagationType: 0
      globalSpeed: 200
      timeCurve:
        serializedVersion: 2
        m_Curve: []
        m_PreInfinity: 0
        m_PostInfinity: 0
        m_RotationOrder: 4
    emissionOptions:
    - emit: 1
      shurikenPrefab: {fileID: 19800000, guid: e000095dd78839f49825e6250c7320f6, type: 2}
      emitAfterRayDeath: 1
      particlesPerMeter: 10
      emissionDuringLifetime:
        serializedVersion: 2
        m_Curve:
        - serializedVersion: 2
          time: 0
          value: 0
          inSlope: 2.0033321
          outSlope: 2.0033321
          tangentMode: 34
        - serializedVersion: 2
          time: 0.50050426
          value: 1.0026762
          inSlope: -0.0020223856
          outSlope: -0.0020223856
          tangentMode: 34
        - serializedVersion: 2
          time: 1
          value: 0
          inSlope: -2.007377
          outSlope: -2.007377
          tangentMode: 34
        m_PreInfinity: 2
        m_PostInfinity: 2
        m_RotationOrder: 4
      radiusCoefDuringLifetime:
        serializedVersion: 2
        m_Curve: []
        m_PreInfinity: 2
        m_PostInfinity: 2
        m_RotationOrder: 4
      directionDuringLifetime:
        serializedVersion: 2
        m_Curve: []
        m_PreInfinity: 2
        m_PostInfinity: 2
        m_RotationOrder: 4
      arcColorInfluence: 1
    spatialNoise: []
    textureOptions:
      shapeTexture: {fileID: 0}
      noiseTexture: {fileID: 0}
      noiseCoef:
        serializedVersion: 2
        m_Curve: []
        m_PreInfinity: 2
        m_PostInfinity: 2
        m_RotationOrder: 4
      animateTexture: 0
      tileSize: 0
      noiseSpeed: 0
    lightsOptions:
      lights: 0
      lightsRange: 6
      lightsIntensityMultiplyer: 10
      renderMode: 0
      priority: 0
    flaresOptions:
      startFlare:
        enabled: 0
        flarePrefab: {fileID: 0}
        flare: {fileID: 0}
        fadeSpeed: 50
        maxBrightness: 0
        maxBrightnessDistance: 0
        minBrightness: 0
        minBrightnessDistance: 0
      endFlare:
        enabled: 1
        flarePrefab: {fileID: 0}
        flare: {fileID: 12100000, guid: e59f068002a7b47858274b3c71e10ea7, type: 2}
        fadeSpeed: 50
        maxBrightness: 0.5
        maxBrightnessDistance: 0
        minBrightness: 0.1
        minBrightnessDistance: 50
      useNoiseMask: 0
      noiseMaskPowerCurve:
        serializedVersion: 2
        m_Curve: []
        m_PreInfinity: 2
        m_PostInfinity: 2
        m_RotationOrder: 4
    nesting:
      Nested: 0
      parentArcIndex: 0
      combinedNesting: 0
      secondaryArcIndex: 0
      nestingCoef: 0
    oscillations: []
    shapeCurves: []
  - material: {fileID: 2100000, guid: 1a0b0aae71a7341458165bdd3e100e75, type: 2}
    colorOptions:
      startColor:
        serializedVersion: 2
        key0: {r: 1, g: 0, b: 0.972549, a: 0}
        key1: {r: 0.28235295, g: 0, b: 1, a: 1}
        key2: {r: 0, g: 0.95686275, b: 1, a: 1}
        key3: {r: 0, g: 1, b: 0.09019608, a: 1}
        key4: {r: 0.8627451, g: 1, b: 0, a: 1}
        key5: {r: 1, g: 0, b: 0, a: 0}
        key6: {r: 0, g: 0, b: 0, a: 0}
        key7: {r: 0, g: 0, b: 0, a: 0}
        ctime0: 0
        ctime1: 17621
        ctime2: 27155
        ctime3: 37897
        ctime4: 47311
        ctime5: 58294
        ctime6: 0
        ctime7: 0
        atime0: 0
        atime1: 8867
        atime2: 65535
        atime3: 65535
        atime4: 65535
        atime5: 0
        atime6: 0
        atime7: 0
        m_Mode: 0
        m_NumColorKeys: 6
        m_NumAlphaKeys: 3
      onlyStartColor: 0
      endColor:
        serializedVersion: 2
        key0: {r: 1, g: 0, b: 0, a: 1}
        key1: {r: 0.8627451, g: 1, b: 0, a: 1}
        key2: {r: 0, g: 1, b: 0.09019608, a: 0}
        key3: {r: 0, g: 0.95686275, b: 1, a: 0}
        key4: {r: 0.28235295, g: 0, b: 1, a: 0}
        key5: {r: 1, g: 0, b: 0.972549, a: 0}
        key6: {r: 0, g: 0, b: 0, a: 0}
        key7: {r: 0, g: 0, b: 0, a: 0}
        ctime0: 4819
        ctime1: 18890
        ctime2: 26214
        ctime3: 35483
        ctime4: 46067
        ctime5: 65535
        ctime6: 0
        ctime7: 0
        atime0: 0
        atime1: 56283
        atime2: 65535
        atime3: 65535
        atime4: 0
        atime5: 0
        atime6: 0
        atime7: 0
        m_Mode: 0
        m_NumColorKeys: 6
        m_NumAlphaKeys: 3
      coreColor:
        serializedVersion: 2
        key0: {r: 1, g: 1, b: 1, a: 1}
        key1: {r: 1, g: 1, b: 1, a: 1}
        key2: {r: 0, g: 0, b: 0, a: 0}
        key3: {r: 0, g: 0, b: 0, a: 0}
        key4: {r: 0, g: 0, b: 0, a: 0}
        key5: {r: 0, g: 0, b: 0, a: 0}
        key6: {r: 0, g: 0, b: 0, a: 0}
        key7: {r: 0, g: 0, b: 0, a: 0}
        ctime0: 0
        ctime1: 65535
        ctime2: 0
        ctime3: 0
        ctime4: 0
        ctime5: 0
        ctime6: 0
        ctime7: 0
        atime0: 0
        atime1: 65535
        atime2: 0
        atime3: 0
        atime4: 0
        atime5: 0
        atime6: 0
        atime7: 0
        m_Mode: 0
        m_NumColorKeys: 2
        m_NumAlphaKeys: 2
      coreCurve:
        serializedVersion: 2
        m_Curve:
        - serializedVersion: 2
          time: 0
          value: 0
          inSlope: 0.4015828
          outSlope: 0.4015828
          tangentMode: 34
        - serializedVersion: 2
          time: 0.5024805
          value: 0.20178753
          inSlope: 0.00000022164876
          outSlope: 0.00000022164876
          tangentMode: 0
        - serializedVersion: 2
          time: 1
          value: 0
          inSlope: -0.4055872
          outSlope: -0.4055872
          tangentMode: 34
        m_PreInfinity: 2
        m_PostInfinity: 2
        m_RotationOrder: 0
      coreJitter: 0
      fade: 1
      fadePoint: 0.2
      frontFade: 0
      frontFadePoint: 0
    sizeOptions:
      interpolation: 0
      shapeType: 0
      startWidthCurve:
        serializedVersion: 2
        m_Curve:
        - serializedVersion: 2
          time: 0
          value: 0
          inSlope: 0.14708824
          outSlope: 0.14708824
          tangentMode: 34
        - serializedVersion: 2
          time: 0.49852797
          value: 0.0733276
          inSlope: 0.0014345888
          outSlope: 0.0014345888
          tangentMode: 0
        - serializedVersion: 2
          time: 1
          value: 0
          inSlope: -0.14622472
          outSlope: -0.14622472
          tangentMode: 34
        m_PreInfinity: 2
        m_PostInfinity: 2
        m_RotationOrder: 0
      endWidthCurve:
        serializedVersion: 2
        m_Curve: []
        m_PreInfinity: 0
        m_PostInfinity: 0
        m_RotationOrder: 4
      segmentLength: 1
      snapSegmentsToShape: 0
      numberOfSmoothingSegments: 0
      minNumberOfSegments: 1
      cornerVertices: 0
      capVectices: 0
    propagationOptions:
      propagationType: 0
      globalSpeed: 200
      timeCurve:
        serializedVersion: 2
        m_Curve: []
        m_PreInfinity: 0
        m_PostInfinity: 0
        m_RotationOrder: 4
    emissionOptions:
    - emit: 0
      shurikenPrefab: {fileID: 19800000, guid: e000095dd78839f49825e6250c7320f6, type: 2}
      emitAfterRayDeath: 1
      particlesPerMeter: 30
      emissionDuringLifetime:
        serializedVersion: 2
        m_Curve:
        - serializedVersion: 2
          time: 0
          value: 0
          inSlope: 2.0033321
          outSlope: 2.0033321
          tangentMode: 34
        - serializedVersion: 2
          time: 0.50050426
          value: 1.0026762
          inSlope: -0.0020223856
          outSlope: -0.0020223856
          tangentMode: 34
        - serializedVersion: 2
          time: 1
          value: 0
          inSlope: -2.007377
          outSlope: -2.007377
          tangentMode: 34
        m_PreInfinity: 2
        m_PostInfinity: 2
        m_RotationOrder: 0
      radiusCoefDuringLifetime:
        serializedVersion: 2
        m_Curve: []
        m_PreInfinity: 0
        m_PostInfinity: 0
        m_RotationOrder: 0
      directionDuringLifetime:
        serializedVersion: 2
        m_Curve: []
        m_PreInfinity: 0
        m_PostInfinity: 0
        m_RotationOrder: 0
      arcColorInfluence: 0.05
    spatialNoise:
    - type: 0
      scale: 10
      scaleMovement: 3
      scaleLimit: 1
      resetFrequency: 3
      invisiblePriority: 1
    - type: 1
      scale: 0.05
      scaleMovement: 0.02
      scaleLimit: 1
      resetFrequency: 3
      invisiblePriority: 1
    textureOptions:
      shapeTexture: {fileID: 0}
      noiseTexture: {fileID: 0}
      noiseCoef:
        serializedVersion: 2
        m_Curve: []
        m_PreInfinity: 2
        m_PostInfinity: 2
        m_RotationOrder: 4
      animateTexture: 0
      tileSize: 0
      noiseSpeed: 0
    lightsOptions:
      lights: 0
      lightsRange: 6
      lightsIntensityMultiplyer: 10
      renderMode: 0
      priority: 0
    flaresOptions:
      startFlare:
        enabled: 0
        flarePrefab: {fileID: 0}
        flare: {fileID: 0}
        fadeSpeed: 50
        maxBrightness: 0
        maxBrightnessDistance: 0
        minBrightness: 0
        minBrightnessDistance: 0
      endFlare:
        enabled: 1
        flarePrefab: {fileID: 0}
        flare: {fileID: 12100000, guid: e59f068002a7b47858274b3c71e10ea7, type: 2}
        fadeSpeed: 50
        maxBrightness: 0.5
        maxBrightnessDistance: 0
        minBrightness: 0.1
        minBrightnessDistance: 50
      useNoiseMask: 0
      noiseMaskPowerCurve:
        serializedVersion: 2
        m_Curve: []
        m_PreInfinity: 2
        m_PostInfinity: 2
        m_RotationOrder: 4
    nesting:
      Nested: 0
      parentArcIndex: 0
      combinedNesting: 0
      secondaryArcIndex: 0
      nestingCoef: 0
    oscillations:
    - type: 0
      swirl: 1
      planeRotation: 0
      wavelength: 1.5
      integerPeriods: 0
      metric: 0
      amplitude: 0.1
      phase: 0
      phaseMovementSpeed: 20
      invisiblePriority: 1
    shapeCurves: []
  - material: {fileID: 2100000, guid: 1a0b0aae71a7341458165bdd3e100e75, type: 2}
    colorOptions:
      startColor:
        serializedVersion: 2
        key0: {r: 1, g: 0, b: 0.972549, a: 0}
        key1: {r: 0.28235295, g: 0, b: 1, a: 1}
        key2: {r: 0, g: 0.95686275, b: 1, a: 1}
        key3: {r: 0, g: 1, b: 0.09019608, a: 0}
        key4: {r: 0.8627451, g: 1, b: 0, a: 0}
        key5: {r: 1, g: 0, b: 0, a: 0}
        key6: {r: 0, g: 0, b: 0, a: 0}
        key7: {r: 0, g: 0, b: 0, a: 0}
        ctime0: 0
        ctime1: 17621
        ctime2: 27155
        ctime3: 37897
        ctime4: 47311
        ctime5: 58294
        ctime6: 0
        ctime7: 0
        atime0: 0
        atime1: 8867
        atime2: 65535
        atime3: 65535
        atime4: 0
        atime5: 0
        atime6: 0
        atime7: 0
        m_Mode: 0
        m_NumColorKeys: 6
        m_NumAlphaKeys: 3
      onlyStartColor: 0
      endColor:
        serializedVersion: 2
        key0: {r: 1, g: 0, b: 0, a: 1}
        key1: {r: 0.8627451, g: 1, b: 0, a: 1}
        key2: {r: 0, g: 1, b: 0.09019608, a: 0}
        key3: {r: 0, g: 0.95686275, b: 1, a: 0}
        key4: {r: 0.28235295, g: 0, b: 1, a: 0}
        key5: {r: 1, g: 0, b: 0.972549, a: 0}
        key6: {r: 0, g: 0, b: 0, a: 0}
        key7: {r: 0, g: 0, b: 0, a: 0}
        ctime0: 4819
        ctime1: 18890
        ctime2: 26214
        ctime3: 35483
        ctime4: 46067
        ctime5: 65535
        ctime6: 0
        ctime7: 0
        atime0: 0
        atime1: 56283
        atime2: 65535
        atime3: 65535
        atime4: 0
        atime5: 0
        atime6: 0
        atime7: 0
        m_Mode: 0
        m_NumColorKeys: 6
        m_NumAlphaKeys: 3
      coreColor:
        serializedVersion: 2
        key0: {r: 1, g: 1, b: 1, a: 1}
        key1: {r: 1, g: 1, b: 1, a: 1}
        key2: {r: 0, g: 0, b: 0, a: 0}
        key3: {r: 0, g: 0, b: 0, a: 0}
        key4: {r: 0, g: 0, b: 0, a: 0}
        key5: {r: 0, g: 0, b: 0, a: 0}
        key6: {r: 0, g: 0, b: 0, a: 0}
        key7: {r: 0, g: 0, b: 0, a: 0}
        ctime0: 0
        ctime1: 65535
        ctime2: 0
        ctime3: 0
        ctime4: 0
        ctime5: 0
        ctime6: 0
        ctime7: 0
        atime0: 0
        atime1: 65535
        atime2: 0
        atime3: 0
        atime4: 0
        atime5: 0
        atime6: 0
        atime7: 0
        m_Mode: 0
        m_NumColorKeys: 2
        m_NumAlphaKeys: 2
      coreCurve:
        serializedVersion: 2
        m_Curve:
        - serializedVersion: 2
          time: 0
          value: 0
          inSlope: 0.4015828
          outSlope: 0.4015828
          tangentMode: 34
        - serializedVersion: 2
          time: 0.5024805
          value: 0.20178753
          inSlope: 0.00000022164876
          outSlope: 0.00000022164876
          tangentMode: 0
        - serializedVersion: 2
          time: 1
          value: 0
          inSlope: -0.4055872
          outSlope: -0.4055872
          tangentMode: 34
        m_PreInfinity: 2
        m_PostInfinity: 2
        m_RotationOrder: 0
      coreJitter: 0
      fade: 1
      fadePoint: 0.2
      frontFade: 0
      frontFadePoint: 0
    sizeOptions:
      interpolation: 0
      shapeType: 0
      startWidthCurve:
        serializedVersion: 2
        m_Curve:
        - serializedVersion: 2
          time: 0
          value: 0
          inSlope: 0.14708824
          outSlope: 0.14708824
          tangentMode: 34
        - serializedVersion: 2
          time: 0.49852797
          value: 0.0733276
          inSlope: 0.0014345888
          outSlope: 0.0014345888
          tangentMode: 0
        - serializedVersion: 2
          time: 1
          value: 0
          inSlope: -0.14622472
          outSlope: -0.14622472
          tangentMode: 34
        m_PreInfinity: 2
        m_PostInfinity: 2
        m_RotationOrder: 0
      endWidthCurve:
        serializedVersion: 2
        m_Curve: []
        m_PreInfinity: 0
        m_PostInfinity: 0
        m_RotationOrder: 4
      segmentLength: 1
      snapSegmentsToShape: 0
      numberOfSmoothingSegments: 0
      minNumberOfSegments: 1
      cornerVertices: 0
      capVectices: 0
    propagationOptions:
      propagationType: 0
      globalSpeed: 200
      timeCurve:
        serializedVersion: 2
        m_Curve: []
        m_PreInfinity: 0
        m_PostInfinity: 0
        m_RotationOrder: 4
    emissionOptions:
    - emit: 0
      shurikenPrefab: {fileID: 19800000, guid: e000095dd78839f49825e6250c7320f6, type: 2}
      emitAfterRayDeath: 1
      particlesPerMeter: 30
      emissionDuringLifetime:
        serializedVersion: 2
        m_Curve:
        - serializedVersion: 2
          time: 0
          value: 0
          inSlope: 2.0033321
          outSlope: 2.0033321
          tangentMode: 34
        - serializedVersion: 2
          time: 0.50050426
          value: 1.0026762
          inSlope: -0.0020223856
          outSlope: -0.0020223856
          tangentMode: 34
        - serializedVersion: 2
          time: 1
          value: 0
          inSlope: -2.007377
          outSlope: -2.007377
          tangentMode: 34
        m_PreInfinity: 2
        m_PostInfinity: 2
        m_RotationOrder: 0
      radiusCoefDuringLifetime:
        serializedVersion: 2
        m_Curve: []
        m_PreInfinity: 0
        m_PostInfinity: 0
        m_RotationOrder: 0
      directionDuringLifetime:
        serializedVersion: 2
        m_Curve: []
        m_PreInfinity: 0
        m_PostInfinity: 0
        m_RotationOrder: 0
      arcColorInfluence: 0.05
    spatialNoise:
    - type: 0
      scale: 10
      scaleMovement: 3
      scaleLimit: 1
      resetFrequency: 3
      invisiblePriority: 1
    - type: 1
      scale: 0.05
      scaleMovement: 0.02
      scaleLimit: 1
      resetFrequency: 3
      invisiblePriority: 1
    textureOptions:
      shapeTexture: {fileID: 0}
      noiseTexture: {fileID: 0}
      noiseCoef:
        serializedVersion: 2
        m_Curve: []
        m_PreInfinity: 2
        m_PostInfinity: 2
        m_RotationOrder: 4
      animateTexture: 0
      tileSize: 0
      noiseSpeed: 0
    lightsOptions:
      lights: 0
      lightsRange: 6
      lightsIntensityMultiplyer: 10
      renderMode: 0
      priority: 0
    flaresOptions:
      startFlare:
        enabled: 0
        flarePrefab: {fileID: 0}
        flare: {fileID: 0}
        fadeSpeed: 50
        maxBrightness: 0
        maxBrightnessDistance: 0
        minBrightness: 0
        minBrightnessDistance: 0
      endFlare:
        enabled: 1
        flarePrefab: {fileID: 0}
        flare: {fileID: 12100000, guid: e59f068002a7b47858274b3c71e10ea7, type: 2}
        fadeSpeed: 50
        maxBrightness: 0.5
        maxBrightnessDistance: 0
        minBrightness: 0.1
        minBrightnessDistance: 50
      useNoiseMask: 0
      noiseMaskPowerCurve:
        serializedVersion: 2
        m_Curve: []
        m_PreInfinity: 2
        m_PostInfinity: 2
        m_RotationOrder: 4
    nesting:
      Nested: 0
      parentArcIndex: 0
      combinedNesting: 0
      secondaryArcIndex: 0
      nestingCoef: 0
    oscillations:
    - type: 0
      swirl: 1
      planeRotation: 0
      wavelength: 3
      integerPeriods: 0
      metric: 0
      amplitude: -0.1
      phase: 0
      phaseMovementSpeed: 20
      invisiblePriority: 1
    shapeCurves: []
  lifetime: 0.5
  playbackType: 1
  elapsedTime: 0
  playBackward: 0
  freeze: 0
  playbackMessages: 0
  messageReciever: {fileID: 0}
  shapePoints: []
  shapeTransforms: []
  closedShape: 0
  sizeMultiplier: 1
  interpolation: 0
  easeInOutOptions:
    useEaseInOut: 0
    easeInOutCurve:
      serializedVersion: 2
      m_Curve:
      - serializedVersion: 2
        time: 0
        value: 0
        inSlope: 2.0033321
        outSlope: 2.0033321
        tangentMode: 34
      - serializedVersion: 2
        time: 0.50050426
        value: 1.0026762
        inSlope: -0.0020223856
        outSlope: -0.0020223856
        tangentMode: 34
      - serializedVersion: 2
        time: 1
        value: 0
        inSlope: -2.007377
        outSlope: -2.007377
        tangentMode: 34
      m_PreInfinity: 2
      m_PostInfinity: 2
      m_RotationOrder: 4
    distance: 2
  tangentsFromTransforms: 0
  tangentsFromTransformsPower: 0.25
  transformsDestructionFlags: 
  oscillationNormal: {x: 0, y: 1, z: 0}
  localSpaceOcillations: 0
  reinitThreshold: 0.5
  performancePriority: 0
  linerendererLayer:
    m_LayerIndex: 0
  currentCameraTranform: {fileID: 0}
  customSorting: 1
  sortingLayerName: UI
  sortingOrder: 3000
--- !u!1001 &100100000
Prefab:
  m_ObjectHideFlags: 1
  serializedVersion: 2
  m_Modification:
    m_TransformParent: {fileID: 0}
    m_Modifications: []
    m_RemovedComponents: []
  m_ParentPrefab: {fileID: 0}
  m_RootGameObject: {fileID: 100000}
  m_IsPrefabParent: 1
