%YAML 1.1
%TAG !u! tag:unity3d.com,2011:
--- !u!114 &11400000
MonoBehaviour:
  m_ObjectHideFlags: 0
  m_PrefabParentObject: {fileID: 0}
  m_PrefabInternal: {fileID: 0}
  m_GameObject: {fileID: 0}
  m_Enabled: 1
  m_EditorHideFlags: 0
  m_Script: {fileID: 11500000, guid: 6ebf80851b9f8b64b817e88673ba9b5c, type: 3}
  m_Name: BigClouds
  m_EditorClassIdentifier: 
  TileSizeX: 2
  TileSizeY: 2
  Align: 1
  ScaleOverride: 0.8
  DisappearVFX: {fileID: 1731845630795802, guid: 046c3fe446b58fd4a824379af80368e9,
    type: 2}
  LayerTilePrefab: {fileID: 1728551401982624, guid: 62bb7610f1c62a34f9d9b9b1ba659365,
    type: 2}
